\beamer@endinputifotherversion {3.33pt}
\beamer@sectionintoc {1}{Espresso-Algorithmus}{3}{0}{1}
\beamer@sectionintoc {2}{Daten und Tools}{14}{0}{2}
\beamer@sectionintoc {3}{Schwierigkeiten}{17}{0}{3}
\beamer@sectionintoc {4}{Implementierung}{18}{0}{4}
