\BOOKMARK [2][]{Outline0.1}{Espresso-Algorithmus}{}% 1
\BOOKMARK [2][]{Outline0.2}{Daten und Tools}{}% 2
\BOOKMARK [2][]{Outline0.3}{Schwierigkeiten}{}% 3
\BOOKMARK [2][]{Outline0.4}{Implementierung}{}% 4
